
	Ex_0000015_RSA

/* ******************************************************************** */
( n, e ) = ( 16799, 5 ):

     013145 013145 016697 008201 006829 010297 013145 006575
     010297 013145 005059 008201 006829 013145 008646 008201
     007909 011811 010297 006575 008646 013569 006829 013145
     011811 010522 013145 005002 008192 007236 005059 006829
     003655 013145 005059 006575 010095 006829 013145 013145
     013145 016005 013145 007236 006829 006829 013145 003655
     006829 007236 008646 007909 006575 000394 005059 006575
     011811 010297 007236 013145 011811 010522 013145 005059
     008201 006829 013145 010522 008192 006575 007909 006829
     007236 005059 013145 005002 006575 010928 008201 005059
     007236 014112 013145 013145 013145 000032 010297 003655
     013145 016369 006829 008192 013535 005059 009064 013145
     010095 008192 011084 006575 010297 010928 013145 016369
     006829 008192 013535 005059 006575 010522 013535 013569
     013145 011811 013569 003655 013145 007909 006575 010095
     006829 014112 013145 013145 013145 016005 010297 013145
     000394 007909 008192 006575 007236 006829 013145 011811
     010522 013145 013569 008192 003655 006575 006829 007236
     013145 003655 006829 008192 003655 013145 008192 010297
     003655 013145 013569 011811 000064 006829 013569 009064
     013145 011084 010297 006575 010928 008201 005059 007236
     014112 013145 013145 013145 001944 008201 006829 010297
     014112 013145 006575 010297 013145 005059 008201 006829
     013145 016369 013569 008192 001187 011811 010297 013145
     011811 010522 013145 007236 005002 006829 006829 005059
     013145 016369 006829 008192 013535 005059 009064 013165
     007236 013145 016369 006829 007236 005059 014112 013145
     013145 013145 007038 010522 013145 008201 008192 010297
     003655 014112 013145 011811 010522 013145 010522 011811
     011811 005059 014112 013145 011811 010522 013145 013569
     006575 000394 014112 013145 011811 010522 013145 006829
     009064 006829 014112 013145 011811 010522 013145 016369
     007909 011811 005002 014112 013145 013145 013145 016005
     013145 007236 006829 006829 013145 005059 008201 006829
     006575 007909 013145 008192 010297 005059 006575 000441
     013535 006829 013145 000394 006829 010297 013145 005002
     011811 013535 013569 003655 013145 008201 008192 000064
     006829 013145 006829 007389 000394 007909 006829 007236
     007236 013165 003655 013145 013145 013145 007776 000064
     006829 010297 013145 007236 013535 008646 008201 013145
     008192 013145 016369 006829 008192 013535 005059 009064
     013145 008192 007236 013145 009064 011811 013535 013145
     010095 008192 007236 005059 006829 007909 013145 010297
     011811 005002 004653 013145 013145 013145 008190 011811
     013145 008192 013569 013569 013145 005059 008201 006829
     006575 007909 013145 000394 007909 008192 006575 007236
     006829 007236 013145 008192 007909 006829 013145 016369
     013535 005059 013145 000394 007909 011811 000394 008201
     006829 008646 006575 006829 007236 013145 013145 013145
     007038 010522 013145 005059 008201 006575 007236 013145
     011811 013535 007909 013145 005059 006575 010095 006829
     014112 013145 008192 013569 013569 013145 009064 011811
     013535 013145 000394 007909 006829 010522 006575 010928
     013535 007909 006575 010297 010928 013720 013145 013145
     013145 000032 010297 003655 013145 010522 011811 007909
     013145 005059 008201 006829 009064 013145 013569 011811
     011811 011084 006829 003655 013145 016369 013535 005059
     013145 005002 006575 005059 008201 013145 003655 006575
     000064 006575 010297 006575 010297 010928 013145 006829
     009064 006829 007236 014112 013145 013145 013145 001944
     008201 006829 009064 013145 008201 008192 003655 013145
     010297 011811 005059 013145 007236 011084 006575 013569
     013569 013145 006829 010297 011811 013535 010928 008201
     013145 009064 011811 013535 007909 013145 005002 011811
     007909 005059 008201 013145 005059 011811 013145 007236
     006575 010297 010928 011123 013145 013145 013145 013145
     013145 000008 011811 007909 013145 005002 006829 014112
     013145 005002 008201 006575 008646 008201 013145 010297
     011811 005002 013145 016369 006829 008201 011811 013569
     003655 013145 005059 008201 006829 007236 006829 013145
     000394 007909 006829 007236 006829 010297 005059 013145
     003655 008192 009064 007236 014112 013145 013145 013145
     013145 013145 008652 008192 000064 006829 013145 006829
     009064 006829 007236 013145 005059 011811 013145 005002
     011811 010297 003655 006829 007909 014112 013145 016369
     013535 005059 013145 013569 008192 008646 011084 013145
     005059 011811 010297 010928 013535 006829 007236 013145
     005059 011811 013145 000394 007909 008192 006575 007236
     006829 004653 013145 013145
/* ******************************************************************** */

