
	Ex_0000018_RSA

/* ******************************************************************** */
( n, e ) = ( 17653, 5 ):

     000459 000459 003125 013732 009596 006073 000566 001316
     004651 017215 014255 000459 006258 004651 012600 013732
     007777 000459 016016 017369 000566 017215 014884 000459
     014884 004200 006073 000566 000459 014884 004200 013732
     000459 017369 004651 006073 017215 014723 005425 000459
     011912 016346 006594 005425 007777 000459 000459 000459
     000032 017215 013638 000459 012600 016346 008504 013732
     000459 014884 004200 013732 000459 013732 016346 001316
     014884 004200 000459 013638 013732 009596 006073 000566
     001316 000459 004200 013732 001316 000459 006073 006594
     017215 000459 005425 006594 013732 013732 014884 000459
     016016 001316 006073 006073 013638 003604 000459 000459
     000459 007617 017369 000566 009472 008504 000459 014884
     004200 013732 000459 008504 013732 013732 017215 000459
     014884 013732 013732 014884 004200 000459 016345 001316
     006073 012600 000459 014884 004200 013732 000459 016345
     004651 013732 001316 009472 013732 000459 014884 004651
     014255 013732 001316 014723 005425 000459 002973 016346
     006594 005425 007777 000459 000459 000459 000032 017215
     013638 000459 016016 000566 001316 017215 000459 014884
     004200 013732 000459 017369 006073 017215 014255 008565
     017369 004651 009596 014723 013638 000459 011912 004200
     006073 013732 017215 004651 015019 007777 000459 004651
     017215 000459 004200 013732 001316 000459 016016 017369
     006073 006073 013638 003604 000459 000459 000459 008234
     016346 008504 013732 000459 014255 017369 016346 013638
     000459 016346 017215 013638 000459 005425 006073 001316
     001316 011371 000459 005425 013732 016346 005425 006073
     017215 005425 000459 016346 005425 000459 014884 004200
     006073 000566 000459 016345 017369 013732 013732 014884
     005425 007777 000459 000459 000459 000032 017215 013638
     000459 013638 006073 000459 006594 004200 016346 014884
     013732 014723 013732 001316 000459 014884 004200 006073
     000566 000459 006594 004651 017369 014884 007777 000459
     005425 006594 004651 016345 014884 008565 016345 006073
     006073 014884 013732 013638 000459 006258 004651 012600
     013732 007777 000459 000459 000459 006258 006073 000459
     014884 004200 013732 000459 006594 004651 013638 013732
     000459 006594 006073 001316 017369 013638 000459 016346
     017215 013638 000459 016346 017369 017369 000459 004200
     013732 001316 000459 016345 016346 013638 004651 017215
     014255 000459 005425 006594 013732 013732 014884 005425
     003604 000459 000459 000459 000243 000566 014884 000459
     011735 000459 016345 006073 001316 016016 004651 013638
     000459 014884 004200 013732 013732 000459 006073 017215
     013732 000459 012600 006073 005425 014884 000459 004200
     013732 004651 017215 006073 000566 005425 000459 009472
     001316 004651 012600 013732 003182 000459 000459 000459
     007049 014998 000459 009472 016346 001316 009596 013732
     000459 017215 006073 014884 000459 006594 004651 014884
     004200 000459 014884 004200 011371 000459 004200 006073
     000566 001316 005425 000459 012600 011371 000459 017369
     006073 009596 013732 014723 005425 000459 016345 016346
     004651 001316 000459 016016 001316 006073 006594 007777
     000459 000459 000459 000296 006073 001316 000459 013638
     001316 016346 006594 000459 017215 006073 000459 017369
     004651 017215 013732 005425 000459 014884 004200 013732
     001316 013732 000459 006594 004651 014884 004200 000459
     014884 004200 004651 017215 013732 000459 016346 017215
     014884 004651 001898 000566 013732 000459 011912 013732
     017215 003604 000459 000459 000459 006090 004651 012600
     000459 004651 017215 000459 014884 004200 011371 000459
     009472 006073 000566 001316 005425 013732 000459 000566
     017215 014884 016346 004651 017215 014884 013732 013638
     000459 013638 006073 000459 016346 017369 017369 006073
     006594 000459 000459 000459 016807 006073 001316 000459
     016016 013732 016346 000566 014884 011371 014723 005425
     000459 011912 016346 014884 014884 013732 001316 017215
     000459 014884 006073 000459 005425 000566 009472 009472
     013732 013732 013638 004651 017215 014255 000459 012600
     013732 017215 009530 000459 000459 000459 000459 000459
     000907 013732 014884 007777 000459 013638 006073 000459
     014884 004200 011371 000459 006594 006073 001316 005425
     014884 000459 006073 017369 013638 000459 006258 004651
     012600 013732 003182 000459 013638 013732 005425 011912
     004651 014884 013732 000459 014884 004200 011371 000459
     006594 001316 006073 017215 014255 007777 000459 000459
     000459 000459 000459 008234 011371 000459 017369 006073
     009596 013732 000459 005425 004200 016346 017369 017369
     000459 004651 017215 000459 012600 011371 000459 009596
     013732 001316 005425 013732 000459 013732 009596 013732
     001316 000459 017369 004651 009596 013732 000459 011371
     006073 000566 017215 014255 009530 000459 000459
/* ******************************************************************** */

